EESchema Schematic File Version 2
LIBS:74xgxx
LIBS:74xx
LIBS:ac-dc
LIBS:actel
LIBS:adc-dac
LIBS:Altera
LIBS:analog_devices
LIBS:analog_switches
LIBS:atmel
LIBS:audio
LIBS:brooktre
LIBS:cmos4000
LIBS:cmos_ieee
LIBS:conn
LIBS:contrib
LIBS:cypress
LIBS:dc-dc
LIBS:device
LIBS:digital-audio
LIBS:diode
LIBS:display
LIBS:dsp
LIBS:elec-unifil
LIBS:ESD_Protection
LIBS:ftdi
LIBS:gennum
LIBS:hc11
LIBS:intel
LIBS:interface
LIBS:ir
LIBS:Lattice
LIBS:linear
LIBS:maxim
LIBS:memory
LIBS:microchip
LIBS:microchip_dspic33dsc
LIBS:microchip_pic10mcu
LIBS:microchip_pic12mcu
LIBS:microchip_pic16mcu
LIBS:microchip_pic18mcu
LIBS:microchip_pic32mcu
LIBS:microcontrollers
LIBS:motor_drivers
LIBS:motorola
LIBS:msp430
LIBS:nordicsemi
LIBS:nxp_armmcu
LIBS:onsemi
LIBS:opto
LIBS:Oscillators
LIBS:philips
LIBS:power
LIBS:powerint
LIBS:Power_Management
LIBS:pspice
LIBS:references
LIBS:regul
LIBS:relays
LIBS:rfcom
LIBS:sensors
LIBS:silabs
LIBS:siliconi
LIBS:stm8
LIBS:stm32
LIBS:supertex
LIBS:switches
LIBS:texas
LIBS:transf
LIBS:transistors
LIBS:ttl_ieee
LIBS:valves
LIBS:video
LIBS:Xicor
LIBS:xilinx
LIBS:Zilog
LIBS:ws2812b
LIBS:ModularIN14BoardI2C-cache
EELAYER 25 0
EELAYER END
$Descr A4 11693 8268
encoding utf-8
Sheet 1 1
Title "Modular Nixie Clock IN-14 I2C module"
Date "13 JAN 2016"
Rev ""
Comp ""
Comment1 ""
Comment2 ""
Comment3 ""
Comment4 ""
$EndDescr
Text Label 9500 5550 0    60   ~ 0
HV
Text Label 9550 4150 0    60   ~ 0
RHDP_1
Text Label 7800 5050 0    60   ~ 0
DIGIT_0_1
Text Label 7800 4950 0    60   ~ 0
DIGIT_9_1
Text Label 7800 4850 0    60   ~ 0
DIGIT_8_1
Text Label 7800 4750 0    60   ~ 0
DIGIT_7_1
Text Label 7800 4650 0    60   ~ 0
DIGIT_6_1
Text Label 7800 4550 0    60   ~ 0
DIGIT_5_1
Text Label 7800 4450 0    60   ~ 0
DIGIT_4_1
Text Label 7800 4350 0    60   ~ 0
DIGIT_3_1
Text Label 7800 4250 0    60   ~ 0
DIGIT_2_1
Text Label 7800 4150 0    60   ~ 0
DIGIT_1_1
$Comp
L ATMEGA8-AI IC1
U 1 1 57480D27
P 2450 2400
F 0 "IC1" H 1700 3600 50  0000 L BNN
F 1 "ATMEGA8-AI" H 2950 850 50  0000 L BNN
F 2 "Housings_QFP:TQFP-32_7x7mm_Pitch0.8mm" H 2450 2400 50  0001 C CIN
F 3 "" H 2450 2400 50  0000 C CNN
	1    2450 2400
	1    0    0    -1  
$EndComp
$Comp
L BSS138 Q3
U 1 1 57480EB3
P 4700 2450
F 0 "Q3" H 4900 2525 50  0000 L CNN
F 1 "BSS131" H 4900 2450 50  0000 L CNN
F 2 "NixieClockMaster:SOT-23_Handsoldering" H 4900 2375 50  0001 L CIN
F 3 "" H 4700 2450 50  0000 L CNN
	1    4700 2450
	1    0    0    -1  
$EndComp
Text Label 4800 2800 0    60   ~ 0
GND
$Comp
L GND #PWR01
U 1 1 57480F63
P 4800 2800
F 0 "#PWR01" H 4800 2550 50  0001 C CNN
F 1 "GND" H 4800 2650 50  0000 C CNN
F 2 "" H 4800 2800 50  0000 C CNN
F 3 "" H 4800 2800 50  0000 C CNN
	1    4800 2800
	1    0    0    -1  
$EndComp
Text Label 6200 900  0    60   ~ 0
DIGIT_0_1
$Comp
L BSS138 Q8
U 1 1 5748113F
P 5750 2450
F 0 "Q8" H 5950 2525 50  0000 L CNN
F 1 "BSS131" H 5950 2450 50  0000 L CNN
F 2 "NixieClockMaster:SOT-23_Handsoldering" H 5950 2375 50  0001 L CIN
F 3 "" H 5750 2450 50  0000 L CNN
	1    5750 2450
	1    0    0    -1  
$EndComp
Text Label 5850 2800 0    60   ~ 0
GND
$Comp
L GND #PWR02
U 1 1 57481149
P 5850 2800
F 0 "#PWR02" H 5850 2550 50  0001 C CNN
F 1 "GND" H 5850 2650 50  0000 C CNN
F 2 "" H 5850 2800 50  0000 C CNN
F 3 "" H 5850 2800 50  0000 C CNN
	1    5850 2800
	1    0    0    -1  
$EndComp
Text Label 5050 2050 0    60   ~ 0
DIGIT_1_1
$Comp
L BSS138 Q4
U 1 1 574812CF
P 4700 3550
F 0 "Q4" H 4900 3625 50  0000 L CNN
F 1 "BSS131" H 4900 3550 50  0000 L CNN
F 2 "NixieClockMaster:SOT-23_Handsoldering" H 4900 3475 50  0001 L CIN
F 3 "" H 4700 3550 50  0000 L CNN
	1    4700 3550
	1    0    0    -1  
$EndComp
Text Label 4800 3900 0    60   ~ 0
GND
$Comp
L GND #PWR03
U 1 1 574812D9
P 4800 3900
F 0 "#PWR03" H 4800 3650 50  0001 C CNN
F 1 "GND" H 4800 3750 50  0000 C CNN
F 2 "" H 4800 3900 50  0000 C CNN
F 3 "" H 4800 3900 50  0000 C CNN
	1    4800 3900
	1    0    0    -1  
$EndComp
$Comp
L BSS138 Q9
U 1 1 574812DF
P 5750 3550
F 0 "Q9" H 5950 3625 50  0000 L CNN
F 1 "BSS131" H 5950 3550 50  0000 L CNN
F 2 "NixieClockMaster:SOT-23_Handsoldering" H 5950 3475 50  0001 L CIN
F 3 "" H 5750 3550 50  0000 L CNN
	1    5750 3550
	1    0    0    -1  
$EndComp
Text Label 5850 3900 0    60   ~ 0
GND
$Comp
L GND #PWR04
U 1 1 574812E9
P 5850 3900
F 0 "#PWR04" H 5850 3650 50  0001 C CNN
F 1 "GND" H 5850 3750 50  0000 C CNN
F 2 "" H 5850 3900 50  0000 C CNN
F 3 "" H 5850 3900 50  0000 C CNN
	1    5850 3900
	1    0    0    -1  
$EndComp
Text Label 6150 2050 0    60   ~ 0
DIGIT_2_1
Text Label 5050 3150 0    60   ~ 0
DIGIT_3_1
$Comp
L R R1
U 1 1 574D8D0A
P 9450 5100
F 0 "R1" V 9530 5100 50  0000 C CNN
F 1 "R" V 9450 5100 50  0000 C CNN
F 2 "NixieClockMaster:R_1206_HandSoldering" V 9380 5100 50  0001 C CNN
F 3 "" H 9450 5100 50  0000 C CNN
	1    9450 5100
	1    0    0    -1  
$EndComp
$Comp
L BSS138 Q1
U 1 1 574D9766
P 4650 4800
F 0 "Q1" H 4850 4875 50  0000 L CNN
F 1 "BSS131" H 4850 4800 50  0000 L CNN
F 2 "NixieClockMaster:SOT-23_Handsoldering" H 4850 4725 50  0001 L CIN
F 3 "" H 4650 4800 50  0000 L CNN
	1    4650 4800
	1    0    0    -1  
$EndComp
Text Label 4750 5150 0    60   ~ 0
GND
$Comp
L GND #PWR05
U 1 1 574D9771
P 4750 5150
F 0 "#PWR05" H 4750 4900 50  0001 C CNN
F 1 "GND" H 4750 5000 50  0000 C CNN
F 2 "" H 4750 5150 50  0000 C CNN
F 3 "" H 4750 5150 50  0000 C CNN
	1    4750 5150
	1    0    0    -1  
$EndComp
Text Label 7200 900  0    60   ~ 0
DIGIT_4_1
$Comp
L BSS138 Q6
U 1 1 574D9778
P 5700 4800
F 0 "Q6" H 5900 4875 50  0000 L CNN
F 1 "BSS131" H 5900 4800 50  0000 L CNN
F 2 "NixieClockMaster:SOT-23_Handsoldering" H 5900 4725 50  0001 L CIN
F 3 "" H 5700 4800 50  0000 L CNN
	1    5700 4800
	1    0    0    -1  
$EndComp
Text Label 5800 5150 0    60   ~ 0
GND
$Comp
L GND #PWR06
U 1 1 574D9782
P 5800 5150
F 0 "#PWR06" H 5800 4900 50  0001 C CNN
F 1 "GND" H 5800 5000 50  0000 C CNN
F 2 "" H 5800 5150 50  0000 C CNN
F 3 "" H 5800 5150 50  0000 C CNN
	1    5800 5150
	1    0    0    -1  
$EndComp
Text Label 5000 4400 0    60   ~ 0
DIGIT_5_1
$Comp
L BSS138 Q2
U 1 1 574D978B
P 4650 5900
F 0 "Q2" H 4850 5975 50  0000 L CNN
F 1 "BSS131" H 4850 5900 50  0000 L CNN
F 2 "NixieClockMaster:SOT-23_Handsoldering" H 4850 5825 50  0001 L CIN
F 3 "" H 4650 5900 50  0000 L CNN
	1    4650 5900
	1    0    0    -1  
$EndComp
Text Label 4750 6250 0    60   ~ 0
GND
$Comp
L GND #PWR07
U 1 1 574D9795
P 4750 6250
F 0 "#PWR07" H 4750 6000 50  0001 C CNN
F 1 "GND" H 4750 6100 50  0000 C CNN
F 2 "" H 4750 6250 50  0000 C CNN
F 3 "" H 4750 6250 50  0000 C CNN
	1    4750 6250
	1    0    0    -1  
$EndComp
$Comp
L BSS138 Q7
U 1 1 574D979B
P 5700 5900
F 0 "Q7" H 5900 5975 50  0000 L CNN
F 1 "BSS131" H 5900 5900 50  0000 L CNN
F 2 "NixieClockMaster:SOT-23_Handsoldering" H 5900 5825 50  0001 L CIN
F 3 "" H 5700 5900 50  0000 L CNN
	1    5700 5900
	1    0    0    -1  
$EndComp
Text Label 5800 6250 0    60   ~ 0
GND
$Comp
L GND #PWR08
U 1 1 574D97A5
P 5800 6250
F 0 "#PWR08" H 5800 6000 50  0001 C CNN
F 1 "GND" H 5800 6100 50  0000 C CNN
F 2 "" H 5800 6250 50  0000 C CNN
F 3 "" H 5800 6250 50  0000 C CNN
	1    5800 6250
	1    0    0    -1  
$EndComp
Text Label 6100 4400 0    60   ~ 0
DIGIT_6_1
Text Label 5000 5500 0    60   ~ 0
DIGIT_7_1
$Comp
L BSS138 Q11
U 1 1 574DA180
P 6800 1300
F 0 "Q11" H 7000 1375 50  0000 L CNN
F 1 "BSS131" H 7000 1300 50  0000 L CNN
F 2 "NixieClockMaster:SOT-23_Handsoldering" H 7000 1225 50  0001 L CIN
F 3 "" H 6800 1300 50  0000 L CNN
	1    6800 1300
	1    0    0    -1  
$EndComp
Text Label 6900 1650 0    60   ~ 0
GND
$Comp
L GND #PWR09
U 1 1 574DA187
P 6900 1650
F 0 "#PWR09" H 6900 1400 50  0001 C CNN
F 1 "GND" H 6900 1500 50  0000 C CNN
F 2 "" H 6900 1650 50  0000 C CNN
F 3 "" H 6900 1650 50  0000 C CNN
	1    6900 1650
	1    0    0    -1  
$EndComp
Text Label 6150 3150 0    60   ~ 0
RHDP_1
$Comp
L BSS138 Q5
U 1 1 574DA18E
P 4750 1300
F 0 "Q5" H 4950 1375 50  0000 L CNN
F 1 "BSS131" H 4950 1300 50  0000 L CNN
F 2 "NixieClockMaster:SOT-23_Handsoldering" H 4950 1225 50  0001 L CIN
F 3 "" H 4750 1300 50  0000 L CNN
	1    4750 1300
	1    0    0    -1  
$EndComp
Text Label 4850 1650 0    60   ~ 0
GND
$Comp
L GND #PWR010
U 1 1 574DA195
P 4850 1650
F 0 "#PWR010" H 4850 1400 50  0001 C CNN
F 1 "GND" H 4850 1500 50  0000 C CNN
F 2 "" H 4850 1650 50  0000 C CNN
F 3 "" H 4850 1650 50  0000 C CNN
	1    4850 1650
	1    0    0    -1  
$EndComp
$Comp
L BSS138 Q10
U 1 1 574DA19B
P 5800 1300
F 0 "Q10" H 6000 1375 50  0000 L CNN
F 1 "BSS131" H 6000 1300 50  0000 L CNN
F 2 "NixieClockMaster:SOT-23_Handsoldering" H 6000 1225 50  0001 L CIN
F 3 "" H 5800 1300 50  0000 L CNN
	1    5800 1300
	1    0    0    -1  
$EndComp
Text Label 5900 1650 0    60   ~ 0
GND
$Comp
L GND #PWR011
U 1 1 574DA1A2
P 5900 1650
F 0 "#PWR011" H 5900 1400 50  0001 C CNN
F 1 "GND" H 5900 1500 50  0000 C CNN
F 2 "" H 5900 1650 50  0000 C CNN
F 3 "" H 5900 1650 50  0000 C CNN
	1    5900 1650
	1    0    0    -1  
$EndComp
Text Label 6100 5500 0    60   ~ 0
DIGIT_8_1
Text Label 5100 900  0    60   ~ 0
DIGIT_9_1
$Comp
L CONN_01X06 P1
U 1 1 574DA922
P 1950 5800
F 0 "P1" H 1950 6150 50  0000 C CNN
F 1 "CONN_03X02" V 2050 5800 50  0000 C CNN
F 2 "NixieClockMaster:Header_MA06-1" H 1950 5800 50  0001 C CNN
F 3 "" H 1950 5800 50  0000 C CNN
	1    1950 5800
	1    0    0    -1  
$EndComp
Text Label 3650 2500 0    60   ~ 0
SDA
Text Label 3650 2600 0    60   ~ 0
SCL
Text Label 1400 4950 0    60   ~ 0
SCL
Text Label 1400 5050 0    60   ~ 0
SDA
$Comp
L GND #PWR012
U 1 1 574DAE25
P 2450 4300
F 0 "#PWR012" H 2450 4050 50  0001 C CNN
F 1 "GND" H 2450 4150 50  0000 C CNN
F 2 "" H 2450 4300 50  0000 C CNN
F 3 "" H 2450 4300 50  0000 C CNN
	1    2450 4300
	1    0    0    -1  
$EndComp
$Comp
L +5V #PWR013
U 1 1 574DB35E
P 2450 800
F 0 "#PWR013" H 2450 650 50  0001 C CNN
F 1 "+5V" H 2450 940 50  0000 C CNN
F 2 "" H 2450 800 50  0000 C CNN
F 3 "" H 2450 800 50  0000 C CNN
	1    2450 800 
	1    0    0    -1  
$EndComp
$Comp
L GND #PWR014
U 1 1 574D98BA
P 1500 6200
F 0 "#PWR014" H 1500 5950 50  0001 C CNN
F 1 "GND" H 1500 6050 50  0000 C CNN
F 2 "" H 1500 6200 50  0000 C CNN
F 3 "" H 1500 6200 50  0000 C CNN
	1    1500 6200
	1    0    0    -1  
$EndComp
$Comp
L +5V #PWR015
U 1 1 574D9925
P 850 5800
F 0 "#PWR015" H 850 5650 50  0001 C CNN
F 1 "+5V" H 850 5940 50  0000 C CNN
F 2 "" H 850 5800 50  0000 C CNN
F 3 "" H 850 5800 50  0000 C CNN
	1    850  5800
	1    0    0    -1  
$EndComp
Text Label 3750 1700 0    60   ~ 0
MOSI
Text Label 3450 1700 0    60   ~ 0
LED
Text Label 3750 1800 0    60   ~ 0
MISO
Text Label 3750 1900 0    60   ~ 0
SCK
Text Label 1500 5750 0    60   ~ 0
MOSI
Text Label 1500 5650 0    60   ~ 0
MISO
Text Label 1500 5550 0    60   ~ 0
SCK
Text Label 1500 5850 0    60   ~ 0
RST
Text Label 1250 1400 0    60   ~ 0
RST
NoConn ~ 1550 2100
NoConn ~ 1550 2300
Text Label 1500 6800 0    60   ~ 0
HV
$Comp
L C C1
U 1 1 574E7ECA
P 1150 1700
F 0 "C1" H 1175 1800 50  0000 L CNN
F 1 "C" H 1175 1600 50  0000 L CNN
F 2 "Capacitors_SMD:C_0805" H 1188 1550 50  0001 C CNN
F 3 "" H 1150 1700 50  0000 C CNN
	1    1150 1700
	1    0    0    -1  
$EndComp
$Comp
L +5V #PWR016
U 1 1 574E8338
P 950 1450
F 0 "#PWR016" H 950 1300 50  0001 C CNN
F 1 "+5V" H 950 1590 50  0000 C CNN
F 2 "" H 950 1450 50  0000 C CNN
F 3 "" H 950 1450 50  0000 C CNN
	1    950  1450
	1    0    0    -1  
$EndComp
$Comp
L GND #PWR017
U 1 1 574E83FE
P 950 1950
F 0 "#PWR017" H 950 1700 50  0001 C CNN
F 1 "GND" H 950 1800 50  0000 C CNN
F 2 "" H 950 1950 50  0000 C CNN
F 3 "" H 950 1950 50  0000 C CNN
	1    950  1950
	1    0    0    -1  
$EndComp
NoConn ~ 3450 2700
NoConn ~ 3450 2800
$Comp
L PWR_FLAG #FLG018
U 1 1 574E85B9
P 2750 1000
F 0 "#FLG018" H 2750 1095 50  0001 C CNN
F 1 "PWR_FLAG" H 2750 1180 50  0000 C CNN
F 2 "" H 2750 1000 50  0000 C CNN
F 3 "" H 2750 1000 50  0000 C CNN
	1    2750 1000
	1    0    0    -1  
$EndComp
$Comp
L PWR_FLAG #FLG019
U 1 1 574E89FE
P 2750 4150
F 0 "#FLG019" H 2750 4245 50  0001 C CNN
F 1 "PWR_FLAG" H 2750 4330 50  0000 C CNN
F 2 "" H 2750 4150 50  0000 C CNN
F 3 "" H 2750 4150 50  0000 C CNN
	1    2750 4150
	1    0    0    -1  
$EndComp
NoConn ~ 1550 1700
$Comp
L Jumper_NO_Small JP1
U 1 1 574EDFD0
P 8000 2250
F 0 "JP1" H 8000 2330 50  0000 C CNN
F 1 "Jumper_NO_Small" H 8010 2190 50  0001 C CNN
F 2 "NixieClockMaster:SOLDER-JUMPER" H 8000 2250 50  0001 C CNN
F 3 "" H 8000 2250 50  0000 C CNN
	1    8000 2250
	1    0    0    -1  
$EndComp
$Comp
L Jumper_NO_Small JP2
U 1 1 574EE16D
P 8000 2450
F 0 "JP2" H 8000 2530 50  0000 C CNN
F 1 "Jumper_NO_Small" H 8010 2390 50  0001 C CNN
F 2 "NixieClockMaster:SOLDER-JUMPER" H 8000 2450 50  0001 C CNN
F 3 "" H 8000 2450 50  0000 C CNN
	1    8000 2450
	1    0    0    -1  
$EndComp
$Comp
L Jumper_NO_Small JP3
U 1 1 574EE235
P 8000 2650
F 0 "JP3" H 8000 2730 50  0000 C CNN
F 1 "Jumper_NO_Small" H 8010 2590 50  0001 C CNN
F 2 "NixieClockMaster:SOLDER-JUMPER" H 8000 2650 50  0001 C CNN
F 3 "" H 8000 2650 50  0000 C CNN
	1    8000 2650
	1    0    0    -1  
$EndComp
$Comp
L Jumper_NO_Small JP4
U 1 1 574EE23B
P 8000 2850
F 0 "JP4" H 8000 2930 50  0000 C CNN
F 1 "Jumper_NO_Small" H 8010 2790 50  0001 C CNN
F 2 "NixieClockMaster:SOLDER-JUMPER" H 8000 2850 50  0001 C CNN
F 3 "" H 8000 2850 50  0000 C CNN
	1    8000 2850
	1    0    0    -1  
$EndComp
$Comp
L GND #PWR020
U 1 1 574EE507
P 8200 2950
F 0 "#PWR020" H 8200 2700 50  0001 C CNN
F 1 "GND" H 8200 2800 50  0000 C CNN
F 2 "" H 8200 2950 50  0000 C CNN
F 3 "" H 8200 2950 50  0000 C CNN
	1    8200 2950
	1    0    0    -1  
$EndComp
Text Label 7500 2250 0    60   ~ 0
ADDR_0
Text Label 7500 2450 0    60   ~ 0
ADDR_1
Text Label 7500 2650 0    60   ~ 0
ADDR_2
Text Label 7500 2850 0    60   ~ 0
ADDR_3
Text Label 3750 2100 0    60   ~ 0
ADDR_0
Text Label 3750 2200 0    60   ~ 0
ADDR_1
Text Label 3750 2300 0    60   ~ 0
ADDR_2
Text Label 3750 2400 0    60   ~ 0
ADDR_3
Wire Wire Line
	3450 3000 4100 3000
Wire Wire Line
	4100 2500 4500 2500
Wire Wire Line
	4800 2650 4800 2800
Wire Wire Line
	4800 2250 4800 2050
Wire Wire Line
	4800 2050 5050 2050
Wire Wire Line
	5850 2650 5850 2800
Wire Wire Line
	5850 2250 5850 2050
Wire Wire Line
	5400 2450 5400 2650
Wire Wire Line
	3450 3100 4200 3100
Wire Wire Line
	5850 2050 6150 2050
Wire Wire Line
	4800 3750 4800 3900
Wire Wire Line
	4800 3350 4800 3150
Wire Wire Line
	5850 3750 5850 3900
Wire Wire Line
	5850 3350 5850 3150
Wire Wire Line
	5400 3550 5400 3750
Wire Wire Line
	5400 3750 4250 3750
Wire Wire Line
	3450 3200 4350 3200
Wire Wire Line
	3450 3300 4250 3300
Wire Wire Line
	4800 3150 5050 3150
Wire Wire Line
	5850 3150 6150 3150
Wire Wire Line
	9450 4650 9450 4950
Wire Wire Line
	4100 3000 4100 2500
Wire Wire Line
	4350 3200 4350 3550
Wire Wire Line
	4250 3300 4250 3750
Wire Wire Line
	5400 2650 4200 2650
Wire Wire Line
	4200 2650 4200 3100
Wire Wire Line
	4750 5000 4750 5150
Wire Wire Line
	4750 4600 4750 4400
Wire Wire Line
	4750 4400 5000 4400
Wire Wire Line
	5800 5000 5800 5150
Wire Wire Line
	5800 4600 5800 4400
Wire Wire Line
	5350 4800 5350 5000
Wire Wire Line
	5800 4400 6100 4400
Wire Wire Line
	4750 6100 4750 6250
Wire Wire Line
	4750 5700 4750 5500
Wire Wire Line
	5800 6100 5800 6250
Wire Wire Line
	5800 5700 5800 5500
Wire Wire Line
	5350 5900 5350 6100
Wire Wire Line
	5350 6100 3850 6100
Wire Wire Line
	4750 5500 5000 5500
Wire Wire Line
	5800 5500 6100 5500
Wire Wire Line
	5350 5000 4050 5000
Wire Wire Line
	3450 3400 4150 3400
Wire Wire Line
	4150 3400 4150 4800
Wire Wire Line
	3450 3500 4050 3500
Wire Wire Line
	4050 3500 4050 5000
Wire Wire Line
	3450 3600 3950 3600
Wire Wire Line
	3850 6100 3850 3700
Wire Wire Line
	3850 3700 3450 3700
Wire Wire Line
	6900 1500 6900 1650
Wire Wire Line
	6900 1100 6900 900 
Wire Wire Line
	6450 1300 6450 1900
Wire Wire Line
	6900 900  7200 900 
Wire Wire Line
	4850 1500 4850 1650
Wire Wire Line
	4850 1100 4850 900 
Wire Wire Line
	5900 1500 5900 1650
Wire Wire Line
	5900 1100 5900 900 
Wire Wire Line
	5450 1300 5450 1500
Wire Wire Line
	5450 1500 3450 1500
Wire Wire Line
	4850 900  5100 900 
Wire Wire Line
	5900 900  6200 900 
Wire Wire Line
	3850 1400 3450 1400
Wire Wire Line
	3850 1300 3850 1400
Wire Wire Line
	3450 1600 4350 1600
Wire Wire Line
	4350 1600 4350 1900
Wire Wire Line
	4350 1900 6450 1900
Wire Wire Line
	3450 2500 3650 2500
Wire Wire Line
	3450 2600 3650 2600
Wire Wire Line
	1400 4950 1650 4950
Wire Wire Line
	1650 5050 1400 5050
Wire Wire Line
	2400 4000 2400 4100
Wire Wire Line
	2400 4100 2500 4100
Wire Wire Line
	2500 4100 2500 4000
Wire Wire Line
	2450 4100 2450 4300
Connection ~ 2450 4100
Wire Wire Line
	2400 1100 2400 950 
Wire Wire Line
	2400 950  2500 950 
Wire Wire Line
	2500 950  2500 1100
Wire Wire Line
	2450 800  2450 950 
Connection ~ 2450 950 
Wire Wire Line
	1750 5550 1500 5550
Wire Wire Line
	1750 5650 1500 5650
Wire Wire Line
	1750 5750 1500 5750
Wire Wire Line
	1750 5850 1500 5850
Wire Wire Line
	850  5950 1750 5950
Wire Wire Line
	1750 6050 1500 6050
Wire Wire Line
	1500 6050 1500 6200
Wire Wire Line
	850  5950 850  5800
Wire Wire Line
	3450 1700 3750 1700
Wire Wire Line
	3450 1800 3750 1800
Wire Wire Line
	3450 1900 3750 1900
Wire Wire Line
	1550 1400 1250 1400
Wire Wire Line
	1550 1600 1350 1600
Wire Wire Line
	950  1550 1350 1550
Wire Wire Line
	950  1550 950  1450
Connection ~ 1150 1550
Wire Wire Line
	950  1850 1350 1850
Wire Wire Line
	1350 1850 1350 1800
Wire Wire Line
	1350 1800 1550 1800
Wire Wire Line
	950  1850 950  1950
Connection ~ 1150 1850
Wire Wire Line
	2750 1000 2750 1050
Wire Wire Line
	2750 1050 2500 1050
Connection ~ 2500 1050
Wire Wire Line
	2750 4150 2750 4200
Wire Wire Line
	2750 4200 2450 4200
Connection ~ 2450 4200
Wire Wire Line
	1350 1550 1350 1600
Wire Wire Line
	8100 2250 8200 2250
Wire Wire Line
	8200 2250 8200 2950
Wire Wire Line
	8200 2450 8100 2450
Wire Wire Line
	8200 2650 8100 2650
Connection ~ 8200 2450
Wire Wire Line
	8200 2850 8100 2850
Connection ~ 8200 2650
Connection ~ 8200 2850
Wire Wire Line
	7900 2250 7500 2250
Wire Wire Line
	7900 2650 7500 2650
Wire Wire Line
	7900 2850 7500 2850
Wire Wire Line
	7900 2450 7500 2450
Wire Wire Line
	3450 2100 3750 2100
Wire Wire Line
	3450 2200 3750 2200
Wire Wire Line
	3450 2300 3750 2300
Wire Wire Line
	3450 2400 3750 2400
Wire Wire Line
	4450 5900 3950 5900
Wire Wire Line
	3950 5900 3950 3600
Wire Wire Line
	5500 5900 5350 5900
Wire Wire Line
	5500 4800 5350 4800
Wire Wire Line
	4150 4800 4450 4800
Wire Wire Line
	4350 3550 4500 3550
Wire Wire Line
	5550 3550 5400 3550
Wire Wire Line
	5550 2450 5400 2450
Wire Wire Line
	4500 2500 4500 2450
Wire Wire Line
	6450 1300 6600 1300
Wire Wire Line
	5450 1300 5600 1300
Wire Wire Line
	3850 1300 4550 1300
Wire Wire Line
	1750 6800 1500 6800
$Comp
L IN-12B N1
U 1 1 59FC61A5
P 9000 4650
F 0 "N1" H 8825 5475 50  0000 L BNN
F 1 "IN-14" H 9000 4650 50  0000 L BNN
F 2 "NixieClockMaster:IN-14" H 9000 4800 50  0001 C CNN
F 3 "" H 9000 4650 60  0001 C CNN
	1    9000 4650
	1    0    0    -1  
$EndComp
Wire Wire Line
	9400 4650 9450 4650
Wire Wire Line
	9450 5250 9450 5550
Wire Wire Line
	9450 5550 9500 5550
Wire Wire Line
	9550 4150 9400 4150
Wire Wire Line
	7800 5050 8500 5050
Wire Wire Line
	8500 4950 7800 4950
Wire Wire Line
	7800 4850 8500 4850
Wire Wire Line
	8500 4750 7800 4750
Wire Wire Line
	7800 4650 8500 4650
Wire Wire Line
	8500 4550 7800 4550
Wire Wire Line
	7800 4450 8500 4450
Wire Wire Line
	8500 4350 7800 4350
Wire Wire Line
	7800 4250 8500 4250
Wire Wire Line
	8500 4150 7800 4150
$Comp
L WS2812B LED1
U 1 1 59FC8ACF
P 9600 2350
F 0 "LED1" H 9600 1950 60  0000 C CNN
F 1 "WS2812B" H 9600 2750 60  0000 C CNN
F 2 "NixieClockMaster:WS2812B_Bottom_Thru" V 9550 2350 60  0001 C CNN
F 3 "" V 9550 2350 60  0000 C CNN
	1    9600 2350
	1    0    0    -1  
$EndComp
Wire Wire Line
	10100 2150 10450 2150
Text Label 10450 2150 0    60   ~ 0
LED
$Comp
L GND #PWR021
U 1 1 59FC8CFE
P 10250 2800
F 0 "#PWR021" H 10250 2550 50  0001 C CNN
F 1 "GND" H 10250 2650 50  0000 C CNN
F 2 "" H 10250 2800 50  0000 C CNN
F 3 "" H 10250 2800 50  0000 C CNN
	1    10250 2800
	1    0    0    -1  
$EndComp
Wire Wire Line
	10100 2550 10250 2550
Wire Wire Line
	10250 1650 10250 2800
$Comp
L +5V #PWR022
U 1 1 59FC8EDC
P 8800 1800
F 0 "#PWR022" H 8800 1650 50  0001 C CNN
F 1 "+5V" H 8800 1940 50  0000 C CNN
F 2 "" H 8800 1800 50  0000 C CNN
F 3 "" H 8800 1800 50  0000 C CNN
	1    8800 1800
	1    0    0    -1  
$EndComp
Wire Wire Line
	9100 2150 8800 2150
Wire Wire Line
	8800 2150 8800 1800
NoConn ~ 9100 2550
NoConn ~ 13150 2850
$Comp
L C C2
U 1 1 59FC958E
P 9550 1650
F 0 "C2" H 9575 1750 50  0000 L CNN
F 1 "C" H 9575 1550 50  0000 L CNN
F 2 "Capacitors_SMD:C_0805" H 9588 1500 50  0001 C CNN
F 3 "" H 9550 1650 50  0000 C CNN
	1    9550 1650
	0    1    1    0   
$EndComp
Wire Wire Line
	9400 1650 9000 1650
Wire Wire Line
	9000 1650 9000 2150
Connection ~ 9000 2150
Wire Wire Line
	9700 1650 10250 1650
Connection ~ 10250 2550
$Comp
L CONN_01X02 J1
U 1 1 59FF58B4
P 1850 5000
F 0 "J1" H 1850 5150 50  0000 C CNN
F 1 "CONN_01X02" V 1950 5000 50  0000 C CNN
F 2 "NixieClockMaster:Header_MA02-1_Small" H 1850 5000 50  0001 C CNN
F 3 "" H 1850 5000 50  0001 C CNN
	1    1850 5000
	1    0    0    -1  
$EndComp
$Comp
L CONN_01X03 J2
U 1 1 59FF5957
P 1950 6800
F 0 "J2" H 1950 7000 50  0000 C CNN
F 1 "CONN_01X03" V 2050 6800 50  0000 C CNN
F 2 "NixieClockMaster:Header_MA03-1_Small" H 1950 6800 50  0001 C CNN
F 3 "" H 1950 6800 50  0001 C CNN
	1    1950 6800
	1    0    0    -1  
$EndComp
Wire Wire Line
	1750 6700 1650 6700
Wire Wire Line
	1650 6700 1650 6900
Connection ~ 1650 6800
Wire Wire Line
	1650 6900 1750 6900
$Comp
L CONN_01X02 J3
U 1 1 5A11E87E
P 3150 5000
F 0 "J3" H 3150 5150 50  0000 C CNN
F 1 "CONN_01X02" V 3250 5000 50  0000 C CNN
F 2 "NixieClockMaster:Header_MA02-1_Small" H 3150 5000 50  0001 C CNN
F 3 "" H 3150 5000 50  0001 C CNN
	1    3150 5000
	1    0    0    -1  
$EndComp
Wire Wire Line
	2950 4950 2650 4950
Wire Wire Line
	2950 5050 2650 5050
$Comp
L GND #PWR023
U 1 1 5A11EE99
P 2650 5200
F 0 "#PWR023" H 2650 4950 50  0001 C CNN
F 1 "GND" H 2650 5050 50  0000 C CNN
F 2 "" H 2650 5200 50  0000 C CNN
F 3 "" H 2650 5200 50  0000 C CNN
	1    2650 5200
	1    0    0    -1  
$EndComp
Wire Wire Line
	2650 5050 2650 5200
$Comp
L +5V #PWR024
U 1 1 5A11EFFC
P 2650 4800
F 0 "#PWR024" H 2650 4650 50  0001 C CNN
F 1 "+5V" H 2650 4940 50  0000 C CNN
F 2 "" H 2650 4800 50  0000 C CNN
F 3 "" H 2650 4800 50  0000 C CNN
	1    2650 4800
	1    0    0    -1  
$EndComp
Wire Wire Line
	2650 4950 2650 4800
$EndSCHEMATC
